{
    "athlete_info":{
        "name":"Mohamed",
        "email":"m@m",
        "password":"m",
        "token":"2",
        "height":"185",
        "weight":"85",
        "phone_number":"01212121212",
        "gender":"Male",
        "address":"test 14B St-124545",
        "qrCode":"6c2t5hzajk23dfpgucmrqosc",
        "age":"25",
        "sessions":[
            {
                "branch":"Heliopolis",
                "time":"12:00 AM",
                "class_name":"UFC",
                "date":"23/12/2017"
            }
        ],
        "subscriptions":[
            {
                "name":"Super Package",
                "branches":[
                    {"name":"Heliopolis"}
                    ,
                    {"name":"Point90"}
                ],
                "classes_left":"6/12",
                "valid_until":"12/12/2018"   
            },
            {
                "name":"Full Package",
                "branches":[
                    {"name":"Heliopolis"}
                ],
                "classes_left":"4/12",
                "valid_until":"02/10/2017"   
            }

        ]
    }
    
}